"","Mean","SD","Naive SE","Time-series SE","2.5%","25%","50%","75%","97.5%","Effective N"
"deviance",13400,49.9,1.18,2.05,13300,13300,13400,13400,13500,507
"CLHat",10.1,0.211,0.00498,0.00645,9.68,9.95,10.1,10.2,10.5,1020
"QHat",14.9,0.341,0.00804,0.0143,14.2,14.6,14.8,15.1,15.5,595
"V1Hat",34.7,0.879,0.0207,0.0548,33,34.1,34.7,35.3,36.4,109
"V2Hat",103,2.96,0.0698,0.158,97.8,101,103,105,109,308
"DkaHat",1.9,0.0695,0.00164,0.00414,1.77,1.85,1.9,1.95,2.04,117
"ke0Hat",1.06,0.056,0.00132,0.00399,0.937,1.03,1.07,1.1,1.16,77.8
"EC50Hat",104,2.02,0.0476,0.133,100,103,104,106,109,210
"omegaKe0",0.106,0.0581,0.00137,0.00433,0.034,0.0594,0.0893,0.14,0.243,23.8
"omegaEC50",0.0715,0.0407,0.00096,0.00254,0.0103,0.036,0.0718,0.101,0.151,41.3
"sigmaC",0.0996,0.00221,5.2e-05,7.07e-05,0.0956,0.0981,0.0996,0.101,0.104,1130
"sigmaFxa",16.3,0.262,0.00618,0.00588,15.8,16.2,16.4,16.5,16.9,1880
"omega[1,1]",0.0718,0.0083,0.000196,0.000274,0.0575,0.066,0.0713,0.0768,0.0901,1010
"omega[1,2]",0.0124,0.00642,0.000151,0.000275,0.000229,0.00794,0.0123,0.0168,0.0256,328
"omega[1,3]",-0.00907,0.0072,0.00017,0.000423,-0.0236,-0.0137,-0.00893,-0.00441,0.00485,125
"omega[1,4]",-0.00815,0.00856,0.000202,0.000439,-0.0247,-0.014,-0.00796,-0.00235,0.00793,356
"omega[1,5]",0.00075,0.0107,0.000253,0.000659,-0.0196,-0.00666,0.00071,0.00792,0.0219,115
"omega[2,1]",0.0124,0.00642,0.000151,0.000275,0.000229,0.00794,0.0123,0.0168,0.0256,328
"omega[2,2]",0.0502,0.00896,0.000211,0.000389,0.035,0.0437,0.0496,0.0556,0.0697,419
"omega[2,3]",0.00484,0.00634,0.00015,0.000355,-0.00799,0.000658,0.00487,0.00933,0.0164,271
"omega[2,4]",0.0115,0.00818,0.000193,0.000442,-0.00385,0.00582,0.0112,0.0168,0.0281,341
"omega[2,5]",0.0103,0.00901,0.000212,0.000506,-0.00765,0.00442,0.0105,0.0164,0.0278,139
"omega[3,1]",-0.00907,0.0072,0.00017,0.000423,-0.0236,-0.0137,-0.00893,-0.00441,0.00485,125
"omega[3,2]",0.00484,0.00634,0.00015,0.000355,-0.00799,0.000658,0.00487,0.00933,0.0164,271
"omega[3,3]",0.0395,0.00935,0.00022,0.000636,0.0235,0.0327,0.0385,0.0455,0.0605,155
"omega[3,4]",0.0408,0.00903,0.000213,0.000522,0.0249,0.0344,0.04,0.0464,0.0599,193
"omega[3,5]",-0.0249,0.00882,0.000208,0.000516,-0.0397,-0.0301,-0.0261,-0.0207,-0.00283,100
"omega[4,1]",-0.00815,0.00856,0.000202,0.000439,-0.0247,-0.014,-0.00796,-0.00235,0.00793,356
"omega[4,2]",0.0115,0.00818,0.000193,0.000442,-0.00385,0.00582,0.0112,0.0168,0.0281,341
"omega[4,3]",0.0408,0.00903,0.000213,0.000522,0.0249,0.0344,0.04,0.0464,0.0599,193
"omega[4,4]",0.0659,0.0134,0.000316,0.000734,0.0428,0.0563,0.0652,0.0747,0.0949,290
"omega[4,5]",-0.0275,0.0116,0.000274,0.00069,-0.0504,-0.0349,-0.0277,-0.0206,-0.00318,140
"omega[5,1]",0.00075,0.0107,0.000253,0.000659,-0.0196,-0.00666,0.00071,0.00792,0.0219,115
"omega[5,2]",0.0103,0.00901,0.000212,0.000506,-0.00765,0.00442,0.0105,0.0164,0.0278,139
"omega[5,3]",-0.0249,0.00882,0.000208,0.000516,-0.0397,-0.0301,-0.0261,-0.0207,-0.00283,100
"omega[5,4]",-0.0275,0.0116,0.000274,0.00069,-0.0504,-0.0349,-0.0277,-0.0206,-0.00318,140
"omega[5,5]",0.066,0.018,0.000425,0.00119,0.0377,0.0528,0.0641,0.0758,0.105,115
