***  Installation Started 04/09/10 11:19  ***
Title: WinBUGS14 Installation
Source: C:\BUGSMO~1\DEVELO~1\WINBUGS\WINBUG~1.EXE
Made Dir: C:\BUGSModelLibrary\development\WinBUGS\WinBUGS14
File Copy: C:\BUGSModelLibrary\development\WinBUGS\WinBUGS14\BackBugs14.lnk
Made Dir: C:\BUGSModelLibrary\development\WinBUGS\WinBUGS14\Bugs
Made Dir: C:\BUGSModelLibrary\development\WinBUGS\WinBUGS14\Bugs\Code
File Copy: C:\BUGSModelLibrary\development\WinBUGS\WinBUGS14\Bugs\Code\Check.ocf
File Copy: C:\BUGSModelLibrary\development\WinBUGS\WinBUGS14\Bugs\Code\Cmds.ocf
File Copy: C:\BUGSModelLibrary\development\WinBUGS\WinBUGS14\Bugs\Code\Codegen.ocf
File Copy: C:\BUGSModelLibrary\development\WinBUGS\WinBUGS14\Bugs\Code\Compiler.ocf
File Copy: C:\BUGSModelLibrary\development\WinBUGS\WinBUGS14\Bugs\Code\Config.ocf
File Copy: C:\BUGSModelLibrary\development\WinBUGS\WinBUGS14\Bugs\Code\Data.ocf
File Copy: C:\BUGSModelLibrary\development\WinBUGS\WinBUGS14\Bugs\Code\Deviance.ocf
File Copy: C:\BUGSModelLibrary\development\WinBUGS\WinBUGS14\Bugs\Code\Display.ocf
File Copy: C:\BUGSModelLibrary\development\WinBUGS\WinBUGS14\Bugs\Code\Evaluate.ocf
File Copy: C:\BUGSModelLibrary\development\WinBUGS\WinBUGS14\Bugs\Code\Find.ocf
File Copy: C:\BUGSModelLibrary\development\WinBUGS\WinBUGS14\Bugs\Code\Grammar.ocf
File Copy: C:\BUGSModelLibrary\development\WinBUGS\WinBUGS14\Bugs\Code\Index.ocf
File Copy: C:\BUGSModelLibrary\development\WinBUGS\WinBUGS14\Bugs\Code\Info.ocf
File Copy: C:\BUGSModelLibrary\development\WinBUGS\WinBUGS14\Bugs\Code\IPR.ocf
File Copy: C:\BUGSModelLibrary\development\WinBUGS\WinBUGS14\Bugs\Code\Keys.ocf
File Copy: C:\BUGSModelLibrary\development\WinBUGS\WinBUGS14\Bugs\Code\Mask.ocf
File Copy: C:\BUGSModelLibrary\development\WinBUGS\WinBUGS14\Bugs\Code\Names.ocf
File Copy: C:\BUGSModelLibrary\development\WinBUGS\WinBUGS14\Bugs\Code\Nodes.ocf
File Copy: C:\BUGSModelLibrary\development\WinBUGS\WinBUGS14\Bugs\Code\Optimize.ocf
File Copy: C:\BUGSModelLibrary\development\WinBUGS\WinBUGS14\Bugs\Code\Parser.ocf
File Copy: C:\BUGSModelLibrary\development\WinBUGS\WinBUGS14\Bugs\Code\RectData.ocf
File Copy: C:\BUGSModelLibrary\development\WinBUGS\WinBUGS14\Bugs\Code\Sampler.ocf
File Copy: C:\BUGSModelLibrary\development\WinBUGS\WinBUGS14\Bugs\Code\Scanners.ocf
File Copy: C:\BUGSModelLibrary\development\WinBUGS\WinBUGS14\Bugs\Code\Script.ocf
File Copy: C:\BUGSModelLibrary\development\WinBUGS\WinBUGS14\Bugs\Code\Seeds.ocf
File Copy: C:\BUGSModelLibrary\development\WinBUGS\WinBUGS14\Bugs\Code\SplusData.ocf
File Copy: C:\BUGSModelLibrary\development\WinBUGS\WinBUGS14\Bugs\Code\State.ocf
File Copy: C:\BUGSModelLibrary\development\WinBUGS\WinBUGS14\Bugs\Code\Updaters.ocf
File Copy: C:\BUGSModelLibrary\development\WinBUGS\WinBUGS14\Bugs\Code\Variables.ocf
Made Dir: C:\BUGSModelLibrary\development\WinBUGS\WinBUGS14\Bugs\Rsrc
File Copy: C:\BUGSModelLibrary\development\WinBUGS\WinBUGS14\Bugs\Rsrc\BlockDialog.odc
File Copy: C:\BUGSModelLibrary\development\WinBUGS\WinBUGS14\Bugs\Rsrc\Grammar.odc
File Copy: C:\BUGSModelLibrary\development\WinBUGS\WinBUGS14\Bugs\Rsrc\InfoDialog.odc
File Copy: C:\BUGSModelLibrary\development\WinBUGS\WinBUGS14\Bugs\Rsrc\Menus.odc
File Copy: C:\BUGSModelLibrary\development\WinBUGS\WinBUGS14\Bugs\Rsrc\OptionsDialog.odc
File Copy: C:\BUGSModelLibrary\development\WinBUGS\WinBUGS14\Bugs\Rsrc\SeedDialog.odc
File Copy: C:\BUGSModelLibrary\development\WinBUGS\WinBUGS14\Bugs\Rsrc\SpecificationDialog.odc
File Copy: C:\BUGSModelLibrary\development\WinBUGS\WinBUGS14\Bugs\Rsrc\SQLData.odc
File Copy: C:\BUGSModelLibrary\development\WinBUGS\WinBUGS14\Bugs\Rsrc\Strings.odc
File Copy: C:\BUGSModelLibrary\development\WinBUGS\WinBUGS14\Bugs\Rsrc\test.odc
File Copy: C:\BUGSModelLibrary\development\WinBUGS\WinBUGS14\Bugs\Rsrc\UpdateDialog.odc
Made Dir: C:\BUGSModelLibrary\development\WinBUGS\WinBUGS14\Compare
Made Dir: C:\BUGSModelLibrary\development\WinBUGS\WinBUGS14\Compare\Code
File Copy: C:\BUGSModelLibrary\development\WinBUGS\WinBUGS14\Compare\Code\Boxplot.ocf
File Copy: C:\BUGSModelLibrary\development\WinBUGS\WinBUGS14\Compare\Code\Caterpillar.ocf
File Copy: C:\BUGSModelLibrary\development\WinBUGS\WinBUGS14\Compare\Code\Cmds.ocf
File Copy: C:\BUGSModelLibrary\development\WinBUGS\WinBUGS14\Compare\Code\ModelFit.ocf
File Copy: C:\BUGSModelLibrary\development\WinBUGS\WinBUGS14\Compare\Code\Scatter.ocf
File Copy: C:\BUGSModelLibrary\development\WinBUGS\WinBUGS14\Compare\Code\Views.ocf
Made Dir: C:\BUGSModelLibrary\development\WinBUGS\WinBUGS14\Compare\Rsrc
File Copy: C:\BUGSModelLibrary\development\WinBUGS\WinBUGS14\Compare\Rsrc\BoxDialog.odc
File Copy: C:\BUGSModelLibrary\development\WinBUGS\WinBUGS14\Compare\Rsrc\CatDialog.odc
File Copy: C:\BUGSModelLibrary\development\WinBUGS\WinBUGS14\Compare\Rsrc\Dialog0.odc
File Copy: C:\BUGSModelLibrary\development\WinBUGS\WinBUGS14\Compare\Rsrc\FitDialog.odc
File Copy: C:\BUGSModelLibrary\development\WinBUGS\WinBUGS14\Compare\Rsrc\ScatterDialog.odc
Made Dir: C:\BUGSModelLibrary\development\WinBUGS\WinBUGS14\Correl
Made Dir: C:\BUGSModelLibrary\development\WinBUGS\WinBUGS14\Correl\Code
File Copy: C:\BUGSModelLibrary\development\WinBUGS\WinBUGS14\Correl\Code\Bivariate.ocf
File Copy: C:\BUGSModelLibrary\development\WinBUGS\WinBUGS14\Correl\Code\Cmds.ocf
File Copy: C:\BUGSModelLibrary\development\WinBUGS\WinBUGS14\Correl\Code\Matrix.ocf
Made Dir: C:\BUGSModelLibrary\development\WinBUGS\WinBUGS14\Correl\Rsrc
File Copy: C:\BUGSModelLibrary\development\WinBUGS\WinBUGS14\Correl\Rsrc\Dialog0.odc
File Copy: C:\BUGSModelLibrary\development\WinBUGS\WinBUGS14\Correl\Rsrc\Strings.odc
Made Dir: C:\BUGSModelLibrary\development\WinBUGS\WinBUGS14\Deviance
Made Dir: C:\BUGSModelLibrary\development\WinBUGS\WinBUGS14\Deviance\Code
File Copy: C:\BUGSModelLibrary\development\WinBUGS\WinBUGS14\Deviance\Code\Cmds.ocf
File Copy: C:\BUGSModelLibrary\development\WinBUGS\WinBUGS14\Deviance\Code\Index.ocf
File Copy: C:\BUGSModelLibrary\development\WinBUGS\WinBUGS14\Deviance\Code\Interface.ocf
File Copy: C:\BUGSModelLibrary\development\WinBUGS\WinBUGS14\Deviance\Code\Monitors.ocf
File Copy: C:\BUGSModelLibrary\development\WinBUGS\WinBUGS14\Deviance\Code\Plugin.ocf
Made Dir: C:\BUGSModelLibrary\development\WinBUGS\WinBUGS14\Deviance\Rsrc
File Copy: C:\BUGSModelLibrary\development\WinBUGS\WinBUGS14\Deviance\Rsrc\Dialog0.odc
File Copy: C:\BUGSModelLibrary\development\WinBUGS\WinBUGS14\Deviance\Rsrc\Strings.odc
Made Dir: C:\BUGSModelLibrary\development\WinBUGS\WinBUGS14\Doodle
Made Dir: C:\BUGSModelLibrary\development\WinBUGS\WinBUGS14\Doodle\Code
File Copy: C:\BUGSModelLibrary\development\WinBUGS\WinBUGS14\Doodle\Code\Cmds.ocf
File Copy: C:\BUGSModelLibrary\development\WinBUGS\WinBUGS14\Doodle\Code\Coder.ocf
File Copy: C:\BUGSModelLibrary\development\WinBUGS\WinBUGS14\Doodle\Code\Dialog.ocf
File Copy: C:\BUGSModelLibrary\development\WinBUGS\WinBUGS14\Doodle\Code\Menus.ocf
File Copy: C:\BUGSModelLibrary\development\WinBUGS\WinBUGS14\Doodle\Code\Models.ocf
File Copy: C:\BUGSModelLibrary\development\WinBUGS\WinBUGS14\Doodle\Code\Nodes.ocf
File Copy: C:\BUGSModelLibrary\development\WinBUGS\WinBUGS14\Doodle\Code\Parser.ocf
File Copy: C:\BUGSModelLibrary\development\WinBUGS\WinBUGS14\Doodle\Code\Plates.ocf
File Copy: C:\BUGSModelLibrary\development\WinBUGS\WinBUGS14\Doodle\Code\Views.ocf
Made Dir: C:\BUGSModelLibrary\development\WinBUGS\WinBUGS14\Doodle\Rsrc
File Copy: C:\BUGSModelLibrary\development\WinBUGS\WinBUGS14\Doodle\Rsrc\Menus.odc
File Copy: C:\BUGSModelLibrary\development\WinBUGS\WinBUGS14\Doodle\Rsrc\Scale.odc
File Copy: C:\BUGSModelLibrary\development\WinBUGS\WinBUGS14\Doodle\Rsrc\Sizes.odc
File Copy: C:\BUGSModelLibrary\development\WinBUGS\WinBUGS14\Doodle\Rsrc\Strings.odc
Made Dir: C:\BUGSModelLibrary\development\WinBUGS\WinBUGS14\Examples
File Copy: C:\BUGSModelLibrary\development\WinBUGS\WinBUGS14\Examples\Air.odc
File Copy: C:\BUGSModelLibrary\development\WinBUGS\WinBUGS14\Examples\Aligators.odc
File Copy: C:\BUGSModelLibrary\development\WinBUGS\WinBUGS14\Examples\Asia.odc
File Copy: C:\BUGSModelLibrary\development\WinBUGS\WinBUGS14\Examples\Beetles.odc
File Copy: C:\BUGSModelLibrary\development\WinBUGS\WinBUGS14\Examples\Biopsies.odc
File Copy: C:\BUGSModelLibrary\development\WinBUGS\WinBUGS14\Examples\BiRats.odc
File Copy: C:\BUGSModelLibrary\development\WinBUGS\WinBUGS14\Examples\Blockers.odc
File Copy: C:\BUGSModelLibrary\development\WinBUGS\WinBUGS14\Examples\Bones.odc
File Copy: C:\BUGSModelLibrary\development\WinBUGS\WinBUGS14\Examples\Cervix.odc
File Copy: C:\BUGSModelLibrary\development\WinBUGS\WinBUGS14\Examples\Dogs.odc
File Copy: C:\BUGSModelLibrary\development\WinBUGS\WinBUGS14\Examples\Dugongs.odc
File Copy: C:\BUGSModelLibrary\development\WinBUGS\WinBUGS14\Examples\Dyes.odc
File Copy: C:\BUGSModelLibrary\development\WinBUGS\WinBUGS14\Examples\Endo.odc
File Copy: C:\BUGSModelLibrary\development\WinBUGS\WinBUGS14\Examples\Epilepsy.odc
File Copy: C:\BUGSModelLibrary\development\WinBUGS\WinBUGS14\Examples\Equiv.odc
File Copy: C:\BUGSModelLibrary\development\WinBUGS\WinBUGS14\Examples\Eyes.odc
File Copy: C:\BUGSModelLibrary\development\WinBUGS\WinBUGS14\Examples\Hearts.odc
File Copy: C:\BUGSModelLibrary\development\WinBUGS\WinBUGS14\Examples\Ice.odc
File Copy: C:\BUGSModelLibrary\development\WinBUGS\WinBUGS14\Examples\Inhalers.odc
File Copy: C:\BUGSModelLibrary\development\WinBUGS\WinBUGS14\Examples\Jaws.odc
File Copy: C:\BUGSModelLibrary\development\WinBUGS\WinBUGS14\Examples\Kidney.odc
File Copy: C:\BUGSModelLibrary\development\WinBUGS\WinBUGS14\Examples\Leuk.odc
File Copy: C:\BUGSModelLibrary\development\WinBUGS\WinBUGS14\Examples\Leukfr.odc
File Copy: C:\BUGSModelLibrary\development\WinBUGS\WinBUGS14\Examples\Line.odc
File Copy: C:\BUGSModelLibrary\development\WinBUGS\WinBUGS14\Examples\Lsat.odc
File Copy: C:\BUGSModelLibrary\development\WinBUGS\WinBUGS14\Examples\Mice.odc
File Copy: C:\BUGSModelLibrary\development\WinBUGS\WinBUGS14\Examples\Otrees.odc
File Copy: C:\BUGSModelLibrary\development\WinBUGS\WinBUGS14\Examples\OtreesMVN.odc
File Copy: C:\BUGSModelLibrary\development\WinBUGS\WinBUGS14\Examples\Oxford.odc
File Copy: C:\BUGSModelLibrary\development\WinBUGS\WinBUGS14\Examples\Pigs.odc
File Copy: C:\BUGSModelLibrary\development\WinBUGS\WinBUGS14\Examples\Pumps.odc
File Copy: C:\BUGSModelLibrary\development\WinBUGS\WinBUGS14\Examples\Rats.odc
File Copy: C:\BUGSModelLibrary\development\WinBUGS\WinBUGS14\Examples\Ratsx.odc
File Copy: C:\BUGSModelLibrary\development\WinBUGS\WinBUGS14\Examples\Ratsy.odc
File Copy: C:\BUGSModelLibrary\development\WinBUGS\WinBUGS14\Examples\Salm.odc
File Copy: C:\BUGSModelLibrary\development\WinBUGS\WinBUGS14\Examples\Schools.odc
File Copy: C:\BUGSModelLibrary\development\WinBUGS\WinBUGS14\Examples\Seeds.odc
File Copy: C:\BUGSModelLibrary\development\WinBUGS\WinBUGS14\Examples\Stacks.odc
File Copy: C:\BUGSModelLibrary\development\WinBUGS\WinBUGS14\Examples\Stagnant.odc
File Copy: C:\BUGSModelLibrary\development\WinBUGS\WinBUGS14\Examples\Surgical.odc
File Copy: C:\BUGSModelLibrary\development\WinBUGS\WinBUGS14\Examples\Volumei.odc
File Copy: C:\BUGSModelLibrary\development\WinBUGS\WinBUGS14\Examples\Volumeii.odc
Made Dir: C:\BUGSModelLibrary\development\WinBUGS\WinBUGS14\Form
Made Dir: C:\BUGSModelLibrary\development\WinBUGS\WinBUGS14\Form\Code
File Copy: C:\BUGSModelLibrary\development\WinBUGS\WinBUGS14\Form\Code\Cmds.ocf
File Copy: C:\BUGSModelLibrary\development\WinBUGS\WinBUGS14\Form\Code\Controllers.ocf
File Copy: C:\BUGSModelLibrary\development\WinBUGS\WinBUGS14\Form\Code\Gen.ocf
File Copy: C:\BUGSModelLibrary\development\WinBUGS\WinBUGS14\Form\Code\Models.ocf
File Copy: C:\BUGSModelLibrary\development\WinBUGS\WinBUGS14\Form\Code\Views.ocf
Made Dir: C:\BUGSModelLibrary\development\WinBUGS\WinBUGS14\Form\Rsrc
File Copy: C:\BUGSModelLibrary\development\WinBUGS\WinBUGS14\Form\Rsrc\Cmds.odc
File Copy: C:\BUGSModelLibrary\development\WinBUGS\WinBUGS14\Form\Rsrc\Cmds2.odc
File Copy: C:\BUGSModelLibrary\development\WinBUGS\WinBUGS14\Form\Rsrc\Gen.odc
File Copy: C:\BUGSModelLibrary\development\WinBUGS\WinBUGS14\Form\Rsrc\Menus.odc
File Copy: C:\BUGSModelLibrary\development\WinBUGS\WinBUGS14\Form\Rsrc\Strings.odc
Made Dir: C:\BUGSModelLibrary\development\WinBUGS\WinBUGS14\Graph
Made Dir: C:\BUGSModelLibrary\development\WinBUGS\WinBUGS14\Graph\Code
File Copy: C:\BUGSModelLibrary\development\WinBUGS\WinBUGS14\Graph\Code\Bern.ocf
File Copy: C:\BUGSModelLibrary\development\WinBUGS\WinBUGS14\Graph\Code\Beta.ocf
File Copy: C:\BUGSModelLibrary\development\WinBUGS\WinBUGS14\Graph\Code\Binomial.ocf
File Copy: C:\BUGSModelLibrary\development\WinBUGS\WinBUGS14\Graph\Code\Block.ocf
File Copy: C:\BUGSModelLibrary\development\WinBUGS\WinBUGS14\Graph\Code\Cat.ocf
File Copy: C:\BUGSModelLibrary\development\WinBUGS\WinBUGS14\Graph\Code\Chain.ocf
File Copy: C:\BUGSModelLibrary\development\WinBUGS\WinBUGS14\Graph\Code\Chisqr.ocf
File Copy: C:\BUGSModelLibrary\development\WinBUGS\WinBUGS14\Graph\Code\Cloglog.ocf
File Copy: C:\BUGSModelLibrary\development\WinBUGS\WinBUGS14\Graph\Code\ConjugateMV.ocf
File Copy: C:\BUGSModelLibrary\development\WinBUGS\WinBUGS14\Graph\Code\Constant.ocf
File Copy: C:\BUGSModelLibrary\development\WinBUGS\WinBUGS14\Graph\Code\Cut.ocf
File Copy: C:\BUGSModelLibrary\development\WinBUGS\WinBUGS14\Graph\Code\Dbexp.ocf
File Copy: C:\BUGSModelLibrary\development\WinBUGS\WinBUGS14\Graph\Code\Dirichlet.ocf
File Copy: C:\BUGSModelLibrary\development\WinBUGS\WinBUGS14\Graph\Code\Exp.ocf
File Copy: C:\BUGSModelLibrary\development\WinBUGS\WinBUGS14\Graph\Code\Flat.ocf
File Copy: C:\BUGSModelLibrary\development\WinBUGS\WinBUGS14\Graph\Code\Founder.ocf
File Copy: C:\BUGSModelLibrary\development\WinBUGS\WinBUGS14\Graph\Code\Function.ocf
File Copy: C:\BUGSModelLibrary\development\WinBUGS\WinBUGS14\Graph\Code\Functional.ocf
File Copy: C:\BUGSModelLibrary\development\WinBUGS\WinBUGS14\Graph\Code\Gamma.ocf
File Copy: C:\BUGSModelLibrary\development\WinBUGS\WinBUGS14\Graph\Code\Gengamma.ocf
File Copy: C:\BUGSModelLibrary\development\WinBUGS\WinBUGS14\Graph\Code\Geometric.ocf
File Copy: C:\BUGSModelLibrary\development\WinBUGS\WinBUGS14\Graph\Code\Inprod.ocf
File Copy: C:\BUGSModelLibrary\development\WinBUGS\WinBUGS14\Graph\Code\Inverse.ocf
File Copy: C:\BUGSModelLibrary\development\WinBUGS\WinBUGS14\Graph\Code\Kepler.ocf
File Copy: C:\BUGSModelLibrary\development\WinBUGS\WinBUGS14\Graph\Code\Log.ocf
File Copy: C:\BUGSModelLibrary\development\WinBUGS\WinBUGS14\Graph\Code\Logdet.ocf
File Copy: C:\BUGSModelLibrary\development\WinBUGS\WinBUGS14\Graph\Code\Logical.ocf
File Copy: C:\BUGSModelLibrary\development\WinBUGS\WinBUGS14\Graph\Code\Logistic.ocf
File Copy: C:\BUGSModelLibrary\development\WinBUGS\WinBUGS14\Graph\Code\Logit.ocf
File Copy: C:\BUGSModelLibrary\development\WinBUGS\WinBUGS14\Graph\Code\Lognorm.ocf
File Copy: C:\BUGSModelLibrary\development\WinBUGS\WinBUGS14\Graph\Code\Mendelian.ocf
File Copy: C:\BUGSModelLibrary\development\WinBUGS\WinBUGS14\Graph\Code\MetFunction.ocf
File Copy: C:\BUGSModelLibrary\development\WinBUGS\WinBUGS14\Graph\Code\Mixture.ocf
File Copy: C:\BUGSModelLibrary\development\WinBUGS\WinBUGS14\Graph\Code\Multinom.ocf
File Copy: C:\BUGSModelLibrary\development\WinBUGS\WinBUGS14\Graph\Code\Multivariate.ocf
File Copy: C:\BUGSModelLibrary\development\WinBUGS\WinBUGS14\Graph\Code\MVNormal.ocf
File Copy: C:\BUGSModelLibrary\development\WinBUGS\WinBUGS14\Graph\Code\MVT.ocf
File Copy: C:\BUGSModelLibrary\development\WinBUGS\WinBUGS14\Graph\Code\Negbin.ocf
File Copy: C:\BUGSModelLibrary\development\WinBUGS\WinBUGS14\Graph\Code\Nodes.ocf
File Copy: C:\BUGSModelLibrary\development\WinBUGS\WinBUGS14\Graph\Code\Normal.ocf
File Copy: C:\BUGSModelLibrary\development\WinBUGS\WinBUGS14\Graph\Code\ODElang.ocf
File Copy: C:\BUGSModelLibrary\development\WinBUGS\WinBUGS14\Graph\Code\ODEmath.ocf
File Copy: C:\BUGSModelLibrary\development\WinBUGS\WinBUGS14\Graph\Code\Pareto.ocf
File Copy: C:\BUGSModelLibrary\development\WinBUGS\WinBUGS14\Graph\Code\Poisson.ocf
File Copy: C:\BUGSModelLibrary\development\WinBUGS\WinBUGS14\Graph\Code\Probit.ocf
File Copy: C:\BUGSModelLibrary\development\WinBUGS\WinBUGS14\Graph\Code\Product.ocf
File Copy: C:\BUGSModelLibrary\development\WinBUGS\WinBUGS14\Graph\Code\Ranks.ocf
File Copy: C:\BUGSModelLibrary\development\WinBUGS\WinBUGS14\Graph\Code\Recessive.ocf
File Copy: C:\BUGSModelLibrary\development\WinBUGS\WinBUGS14\Graph\Code\RENormal.ocf
File Copy: C:\BUGSModelLibrary\development\WinBUGS\WinBUGS14\Graph\Code\Rules.ocf
File Copy: C:\BUGSModelLibrary\development\WinBUGS\WinBUGS14\Graph\Code\Scalar.ocf
File Copy: C:\BUGSModelLibrary\development\WinBUGS\WinBUGS14\Graph\Code\Stack.ocf
File Copy: C:\BUGSModelLibrary\development\WinBUGS\WinBUGS14\Graph\Code\Stochastic.ocf
File Copy: C:\BUGSModelLibrary\development\WinBUGS\WinBUGS14\Graph\Code\Stochtrend.ocf
File Copy: C:\BUGSModelLibrary\development\WinBUGS\WinBUGS14\Graph\Code\Sumation.ocf
File Copy: C:\BUGSModelLibrary\development\WinBUGS\WinBUGS14\Graph\Code\T.ocf
File Copy: C:\BUGSModelLibrary\development\WinBUGS\WinBUGS14\Graph\Code\Table.ocf
File Copy: C:\BUGSModelLibrary\development\WinBUGS\WinBUGS14\Graph\Code\Uniform.ocf
File Copy: C:\BUGSModelLibrary\development\WinBUGS\WinBUGS14\Graph\Code\Univariate.ocf
File Copy: C:\BUGSModelLibrary\development\WinBUGS\WinBUGS14\Graph\Code\VecFunction.ocf
File Copy: C:\BUGSModelLibrary\development\WinBUGS\WinBUGS14\Graph\Code\Vector.ocf
File Copy: C:\BUGSModelLibrary\development\WinBUGS\WinBUGS14\Graph\Code\Weibull.ocf
File Copy: C:\BUGSModelLibrary\development\WinBUGS\WinBUGS14\Graph\Code\Wishart.ocf
Made Dir: C:\BUGSModelLibrary\development\WinBUGS\WinBUGS14\Graph\Docu
File Copy: C:\BUGSModelLibrary\development\WinBUGS\WinBUGS14\Graph\Docu\Constant.odc
File Copy: C:\BUGSModelLibrary\development\WinBUGS\WinBUGS14\Graph\Docu\Logical.odc
File Copy: C:\BUGSModelLibrary\development\WinBUGS\WinBUGS14\Graph\Docu\Mixture.odc
File Copy: C:\BUGSModelLibrary\development\WinBUGS\WinBUGS14\Graph\Docu\Nodes.odc
File Copy: C:\BUGSModelLibrary\development\WinBUGS\WinBUGS14\Graph\Docu\Scaler.odc
File Copy: C:\BUGSModelLibrary\development\WinBUGS\WinBUGS14\Graph\Docu\Stochastic.odc
Made Dir: C:\BUGSModelLibrary\development\WinBUGS\WinBUGS14\Graph\Rsrc
File Copy: C:\BUGSModelLibrary\development\WinBUGS\WinBUGS14\Graph\Rsrc\Strings.odc
Made Dir: C:\BUGSModelLibrary\development\WinBUGS\WinBUGS14\Host
Made Dir: C:\BUGSModelLibrary\development\WinBUGS\WinBUGS14\Host\Code
File Copy: C:\BUGSModelLibrary\development\WinBUGS\WinBUGS14\Host\Code\Bitmaps.ocf
File Copy: C:\BUGSModelLibrary\development\WinBUGS\WinBUGS14\Host\Code\CFrames.ocf
File Copy: C:\BUGSModelLibrary\development\WinBUGS\WinBUGS14\Host\Code\Clipboard.ocf
File Copy: C:\BUGSModelLibrary\development\WinBUGS\WinBUGS14\Host\Code\Cmds.ocf
File Copy: C:\BUGSModelLibrary\development\WinBUGS\WinBUGS14\Host\Code\Dialog.ocf
File Copy: C:\BUGSModelLibrary\development\WinBUGS\WinBUGS14\Host\Code\Files.ocf
File Copy: C:\BUGSModelLibrary\development\WinBUGS\WinBUGS14\Host\Code\Fonts.ocf
File Copy: C:\BUGSModelLibrary\development\WinBUGS\WinBUGS14\Host\Code\Mail.ocf
File Copy: C:\BUGSModelLibrary\development\WinBUGS\WinBUGS14\Host\Code\Mechanisms.ocf
File Copy: C:\BUGSModelLibrary\development\WinBUGS\WinBUGS14\Host\Code\Menus.ocf
File Copy: C:\BUGSModelLibrary\development\WinBUGS\WinBUGS14\Host\Code\PackedFiles.ocf
File Copy: C:\BUGSModelLibrary\development\WinBUGS\WinBUGS14\Host\Code\Pictures.ocf
File Copy: C:\BUGSModelLibrary\development\WinBUGS\WinBUGS14\Host\Code\Ports.ocf
File Copy: C:\BUGSModelLibrary\development\WinBUGS\WinBUGS14\Host\Code\Printers.ocf
File Copy: C:\BUGSModelLibrary\development\WinBUGS\WinBUGS14\Host\Code\Registry.ocf
File Copy: C:\BUGSModelLibrary\development\WinBUGS\WinBUGS14\Host\Code\TabFrames.ocf
File Copy: C:\BUGSModelLibrary\development\WinBUGS\WinBUGS14\Host\Code\TextConv.ocf
File Copy: C:\BUGSModelLibrary\development\WinBUGS\WinBUGS14\Host\Code\Windows.ocf
Made Dir: C:\BUGSModelLibrary\development\WinBUGS\WinBUGS14\Host\Rsrc
File Copy: C:\BUGSModelLibrary\development\WinBUGS\WinBUGS14\Host\Rsrc\Imptype.odc
File Copy: C:\BUGSModelLibrary\development\WinBUGS\WinBUGS14\Host\Rsrc\Prefs.odc
File Copy: C:\BUGSModelLibrary\development\WinBUGS\WinBUGS14\Host\Rsrc\Printing.odc
File Copy: C:\BUGSModelLibrary\development\WinBUGS\WinBUGS14\Host\Rsrc\Setup.odc
File Copy: C:\BUGSModelLibrary\development\WinBUGS\WinBUGS14\Host\Rsrc\Strings.odc
Made Dir: C:\BUGSModelLibrary\development\WinBUGS\WinBUGS14\Manuals
File Copy: C:\BUGSModelLibrary\development\WinBUGS\WinBUGS14\Manuals\Changing MCMC Defaults.odc
File Copy: C:\BUGSModelLibrary\development\WinBUGS\WinBUGS14\Manuals\Compound Documents.odc
File Copy: C:\BUGSModelLibrary\development\WinBUGS\WinBUGS14\Manuals\Distributions.odc
File Copy: C:\BUGSModelLibrary\development\WinBUGS\WinBUGS14\Manuals\Doodle.odc
File Copy: C:\BUGSModelLibrary\development\WinBUGS\WinBUGS14\Manuals\DoodleBUGS.odc
File Copy: C:\BUGSModelLibrary\development\WinBUGS\WinBUGS14\Manuals\Introduction.odc
File Copy: C:\BUGSModelLibrary\development\WinBUGS\WinBUGS14\Manuals\Licence.odc
File Copy: C:\BUGSModelLibrary\development\WinBUGS\WinBUGS14\Manuals\Manual.odc
File Copy: C:\BUGSModelLibrary\development\WinBUGS\WinBUGS14\Manuals\Model Specification.odc
File Copy: C:\BUGSModelLibrary\development\WinBUGS\WinBUGS14\Manuals\References.odc
File Copy: C:\BUGSModelLibrary\development\WinBUGS\WinBUGS14\Manuals\Scripts.odc
File Copy: C:\BUGSModelLibrary\development\WinBUGS\WinBUGS14\Manuals\The Inference Menu.odc
File Copy: C:\BUGSModelLibrary\development\WinBUGS\WinBUGS14\Manuals\The Info Menu.odc
File Copy: C:\BUGSModelLibrary\development\WinBUGS\WinBUGS14\Manuals\The Model Menu.odc
File Copy: C:\BUGSModelLibrary\development\WinBUGS\WinBUGS14\Manuals\The Options Menu.odc
File Copy: C:\BUGSModelLibrary\development\WinBUGS\WinBUGS14\Manuals\Tips and Troubleshooting.odc
Made Dir: C:\BUGSModelLibrary\development\WinBUGS\WinBUGS14\Manuals\Tricks
File Copy: C:\BUGSModelLibrary\development\WinBUGS\WinBUGS14\Manuals\Tricks\mixtures.odc
File Copy: C:\BUGSModelLibrary\development\WinBUGS\WinBUGS14\Manuals\Tricks\new-prior.odc
File Copy: C:\BUGSModelLibrary\development\WinBUGS\WinBUGS14\Manuals\Tricks\new-sampling.odc
File Copy: C:\BUGSModelLibrary\development\WinBUGS\WinBUGS14\Manuals\Tricks\prior-sensitivity.odc
File Copy: C:\BUGSModelLibrary\development\WinBUGS\WinBUGS14\Manuals\Tricks\ragged.odc
File Copy: C:\BUGSModelLibrary\development\WinBUGS\WinBUGS14\Manuals\Tricks\random-sets.odc
File Copy: C:\BUGSModelLibrary\development\WinBUGS\WinBUGS14\Manuals\Tricks\t-df.odc
File Copy: C:\BUGSModelLibrary\development\WinBUGS\WinBUGS14\Manuals\Tricks.odc
Made Dir: C:\BUGSModelLibrary\development\WinBUGS\WinBUGS14\Manuals\Tutorial
File Copy: C:\BUGSModelLibrary\development\WinBUGS\WinBUGS14\Manuals\Tutorial\seeds_inits.odc
File Copy: C:\BUGSModelLibrary\development\WinBUGS\WinBUGS14\Manuals\Tutorial\seeds_mix_data.odc
File Copy: C:\BUGSModelLibrary\development\WinBUGS\WinBUGS14\Manuals\Tutorial\seeds_model.odc
File Copy: C:\BUGSModelLibrary\development\WinBUGS\WinBUGS14\Manuals\Tutorial\seeds_S_data.odc
File Copy: C:\BUGSModelLibrary\development\WinBUGS\WinBUGS14\Manuals\Tutorial.odc
File Copy: C:\BUGSModelLibrary\development\WinBUGS\WinBUGS14\Manuals\WinBUGS Graphics.odc
Made Dir: C:\BUGSModelLibrary\development\WinBUGS\WinBUGS14\Maps
Made Dir: C:\BUGSModelLibrary\development\WinBUGS\WinBUGS14\Maps\Code
File Copy: C:\BUGSModelLibrary\development\WinBUGS\WinBUGS14\Maps\Code\Adjacency.ocf
File Copy: C:\BUGSModelLibrary\development\WinBUGS\WinBUGS14\Maps\Code\Arcinfo.ocf
File Copy: C:\BUGSModelLibrary\development\WinBUGS\WinBUGS14\Maps\Code\Cmds.ocf
File Copy: C:\BUGSModelLibrary\development\WinBUGS\WinBUGS14\Maps\Code\Config1.ocf
File Copy: C:\BUGSModelLibrary\development\WinBUGS\WinBUGS14\Maps\Code\Epimap.ocf
File Copy: C:\BUGSModelLibrary\development\WinBUGS\WinBUGS14\Maps\Code\Importer.ocf
File Copy: C:\BUGSModelLibrary\development\WinBUGS\WinBUGS14\Maps\Code\Index.ocf
File Copy: C:\BUGSModelLibrary\development\WinBUGS\WinBUGS14\Maps\Code\Keys.ocf
File Copy: C:\BUGSModelLibrary\development\WinBUGS\WinBUGS14\Maps\Code\Map.ocf
File Copy: C:\BUGSModelLibrary\development\WinBUGS\WinBUGS14\Maps\Code\Splus.ocf
File Copy: C:\BUGSModelLibrary\development\WinBUGS\WinBUGS14\Maps\Code\Views.ocf
File Copy: C:\BUGSModelLibrary\development\WinBUGS\WinBUGS14\Maps\Code\Views1.ocf
Made Dir: C:\BUGSModelLibrary\development\WinBUGS\WinBUGS14\Maps\Docu
File Copy: C:\BUGSModelLibrary\development\WinBUGS\WinBUGS14\Maps\Docu\Manual.odc
Made Dir: C:\BUGSModelLibrary\development\WinBUGS\WinBUGS14\Maps\Map
File Copy: C:\BUGSModelLibrary\development\WinBUGS\WinBUGS14\Maps\Map\Belgium.map
File Copy: C:\BUGSModelLibrary\development\WinBUGS\WinBUGS14\Maps\Map\Elevation.map
File Copy: C:\BUGSModelLibrary\development\WinBUGS\WinBUGS14\Maps\Map\France.map
File Copy: C:\BUGSModelLibrary\development\WinBUGS\WinBUGS14\Maps\Map\GB_Counties.map
File Copy: C:\BUGSModelLibrary\development\WinBUGS\WinBUGS14\Maps\Map\GreeceNomoi.map
File Copy: C:\BUGSModelLibrary\development\WinBUGS\WinBUGS14\Maps\Map\London_HA.map
File Copy: C:\BUGSModelLibrary\development\WinBUGS\WinBUGS14\Maps\Map\Munich.map
File Copy: C:\BUGSModelLibrary\development\WinBUGS\WinBUGS14\Maps\Map\Sardinia.map
File Copy: C:\BUGSModelLibrary\development\WinBUGS\WinBUGS14\Maps\Map\Scotland.map
Made Dir: C:\BUGSModelLibrary\development\WinBUGS\WinBUGS14\Maps\Rsrc
File Copy: C:\BUGSModelLibrary\development\WinBUGS\WinBUGS14\Maps\Rsrc\Dialog0.odc
File Copy: C:\BUGSModelLibrary\development\WinBUGS\WinBUGS14\Maps\Rsrc\Dialog1.odc
File Copy: C:\BUGSModelLibrary\development\WinBUGS\WinBUGS14\Maps\Rsrc\Menus.odc
File Copy: C:\BUGSModelLibrary\development\WinBUGS\WinBUGS14\Maps\Rsrc\Strings.odc
Made Dir: C:\BUGSModelLibrary\development\WinBUGS\WinBUGS14\Math
Made Dir: C:\BUGSModelLibrary\development\WinBUGS\WinBUGS14\Math\Code
File Copy: C:\BUGSModelLibrary\development\WinBUGS\WinBUGS14\Math\Code\AESolver.ocf
File Copy: C:\BUGSModelLibrary\development\WinBUGS\WinBUGS14\Math\Code\BulirschStoer.ocf
File Copy: C:\BUGSModelLibrary\development\WinBUGS\WinBUGS14\Math\Code\Functional.ocf
File Copy: C:\BUGSModelLibrary\development\WinBUGS\WinBUGS14\Math\Code\Integrate.ocf
File Copy: C:\BUGSModelLibrary\development\WinBUGS\WinBUGS14\Math\Code\Matrix.ocf
File Copy: C:\BUGSModelLibrary\development\WinBUGS\WinBUGS14\Math\Code\ODE.ocf
File Copy: C:\BUGSModelLibrary\development\WinBUGS\WinBUGS14\Math\Code\Randnum.ocf
File Copy: C:\BUGSModelLibrary\development\WinBUGS\WinBUGS14\Math\Code\RungeKutta.ocf
File Copy: C:\BUGSModelLibrary\development\WinBUGS\WinBUGS14\Math\Code\Sort.ocf
File Copy: C:\BUGSModelLibrary\development\WinBUGS\WinBUGS14\Math\Code\Sparsematrix.ocf
File Copy: C:\BUGSModelLibrary\development\WinBUGS\WinBUGS14\Math\Code\Specfunc.ocf
Made Dir: C:\BUGSModelLibrary\development\WinBUGS\WinBUGS14\Math\Rsrc
File Copy: C:\BUGSModelLibrary\development\WinBUGS\WinBUGS14\Math\Rsrc\Strings.odc
Made Dir: C:\BUGSModelLibrary\development\WinBUGS\WinBUGS14\Monitors
Made Dir: C:\BUGSModelLibrary\development\WinBUGS\WinBUGS14\Monitors\Code
File Copy: C:\BUGSModelLibrary\development\WinBUGS\WinBUGS14\Monitors\Code\Deviance.ocf
File Copy: C:\BUGSModelLibrary\development\WinBUGS\WinBUGS14\Monitors\Code\Samples.ocf
File Copy: C:\BUGSModelLibrary\development\WinBUGS\WinBUGS14\Monitors\Code\Summary.ocf
Made Dir: C:\BUGSModelLibrary\development\WinBUGS\WinBUGS14\Ole
Made Dir: C:\BUGSModelLibrary\development\WinBUGS\WinBUGS14\Ole\Code
File Copy: C:\BUGSModelLibrary\development\WinBUGS\WinBUGS14\Ole\Code\Client.ocf
File Copy: C:\BUGSModelLibrary\development\WinBUGS\WinBUGS14\Ole\Code\Data.ocf
File Copy: C:\BUGSModelLibrary\development\WinBUGS\WinBUGS14\Ole\Code\Server.ocf
File Copy: C:\BUGSModelLibrary\development\WinBUGS\WinBUGS14\Ole\Code\Storage.ocf
File Copy: C:\BUGSModelLibrary\development\WinBUGS\WinBUGS14\Ole\Code\Views.ocf
Made Dir: C:\BUGSModelLibrary\development\WinBUGS\WinBUGS14\Plots
Made Dir: C:\BUGSModelLibrary\development\WinBUGS\WinBUGS14\Plots\Code
File Copy: C:\BUGSModelLibrary\development\WinBUGS\WinBUGS14\Plots\Code\Axis.ocf
File Copy: C:\BUGSModelLibrary\development\WinBUGS\WinBUGS14\Plots\Code\Dialog.ocf
File Copy: C:\BUGSModelLibrary\development\WinBUGS\WinBUGS14\Plots\Code\Emptyaxis.ocf
File Copy: C:\BUGSModelLibrary\development\WinBUGS\WinBUGS14\Plots\Code\Func.ocf
File Copy: C:\BUGSModelLibrary\development\WinBUGS\WinBUGS14\Plots\Code\Nomaxis.ocf
File Copy: C:\BUGSModelLibrary\development\WinBUGS\WinBUGS14\Plots\Code\Stdaxis.ocf
File Copy: C:\BUGSModelLibrary\development\WinBUGS\WinBUGS14\Plots\Code\Views.ocf
Made Dir: C:\BUGSModelLibrary\development\WinBUGS\WinBUGS14\Plots\Rsrc
File Copy: C:\BUGSModelLibrary\development\WinBUGS\WinBUGS14\Plots\Rsrc\PropDialog.odc
File Copy: C:\BUGSModelLibrary\development\WinBUGS\WinBUGS14\Plots\Rsrc\Strings.odc
Made Dir: C:\BUGSModelLibrary\development\WinBUGS\WinBUGS14\Ranks
Made Dir: C:\BUGSModelLibrary\development\WinBUGS\WinBUGS14\Ranks\Code
File Copy: C:\BUGSModelLibrary\development\WinBUGS\WinBUGS14\Ranks\Code\Cmds.ocf
File Copy: C:\BUGSModelLibrary\development\WinBUGS\WinBUGS14\Ranks\Code\Density.ocf
File Copy: C:\BUGSModelLibrary\development\WinBUGS\WinBUGS14\Ranks\Code\Index.ocf
File Copy: C:\BUGSModelLibrary\development\WinBUGS\WinBUGS14\Ranks\Code\Interface.ocf
File Copy: C:\BUGSModelLibrary\development\WinBUGS\WinBUGS14\Ranks\Code\Monitors.ocf
Made Dir: C:\BUGSModelLibrary\development\WinBUGS\WinBUGS14\Ranks\Rsrc
File Copy: C:\BUGSModelLibrary\development\WinBUGS\WinBUGS14\Ranks\Rsrc\Dialog0.odc
File Copy: C:\BUGSModelLibrary\development\WinBUGS\WinBUGS14\Ranks\Rsrc\Strings.odc
Made Dir: C:\BUGSModelLibrary\development\WinBUGS\WinBUGS14\Samples
Made Dir: C:\BUGSModelLibrary\development\WinBUGS\WinBUGS14\Samples\Code
File Copy: C:\BUGSModelLibrary\development\WinBUGS\WinBUGS14\Samples\Code\Cmds.ocf
File Copy: C:\BUGSModelLibrary\development\WinBUGS\WinBUGS14\Samples\Code\Correlat.ocf
File Copy: C:\BUGSModelLibrary\development\WinBUGS\WinBUGS14\Samples\Code\Density.ocf
File Copy: C:\BUGSModelLibrary\development\WinBUGS\WinBUGS14\Samples\Code\Diagnostics.ocf
File Copy: C:\BUGSModelLibrary\development\WinBUGS\WinBUGS14\Samples\Code\History.ocf
File Copy: C:\BUGSModelLibrary\development\WinBUGS\WinBUGS14\Samples\Code\Index.ocf
File Copy: C:\BUGSModelLibrary\development\WinBUGS\WinBUGS14\Samples\Code\Interface.ocf
File Copy: C:\BUGSModelLibrary\development\WinBUGS\WinBUGS14\Samples\Code\Monitors.ocf
File Copy: C:\BUGSModelLibrary\development\WinBUGS\WinBUGS14\Samples\Code\Quantiles.ocf
File Copy: C:\BUGSModelLibrary\development\WinBUGS\WinBUGS14\Samples\Code\Trace.ocf
File Copy: C:\BUGSModelLibrary\development\WinBUGS\WinBUGS14\Samples\Code\Views.ocf
Made Dir: C:\BUGSModelLibrary\development\WinBUGS\WinBUGS14\Samples\Rsrc
File Copy: C:\BUGSModelLibrary\development\WinBUGS\WinBUGS14\Samples\Rsrc\DensityDialog.odc
File Copy: C:\BUGSModelLibrary\development\WinBUGS\WinBUGS14\Samples\Rsrc\Dialog0.odc
File Copy: C:\BUGSModelLibrary\development\WinBUGS\WinBUGS14\Samples\Rsrc\HistogramDialog.odc
File Copy: C:\BUGSModelLibrary\development\WinBUGS\WinBUGS14\Samples\Rsrc\Strings.odc
File Copy: C:\BUGSModelLibrary\development\WinBUGS\WinBUGS14\Script.odc
Made Dir: C:\BUGSModelLibrary\development\WinBUGS\WinBUGS14\Spatial
Made Dir: C:\BUGSModelLibrary\development\WinBUGS\WinBUGS14\Spatial\Code
File Copy: C:\BUGSModelLibrary\development\WinBUGS\WinBUGS14\Spatial\Code\Bound.ocf
File Copy: C:\BUGSModelLibrary\development\WinBUGS\WinBUGS14\Spatial\Code\CARl1.ocf
File Copy: C:\BUGSModelLibrary\development\WinBUGS\WinBUGS14\Spatial\Code\CARNormal.ocf
File Copy: C:\BUGSModelLibrary\development\WinBUGS\WinBUGS14\Spatial\Code\CARProper.ocf
File Copy: C:\BUGSModelLibrary\development\WinBUGS\WinBUGS14\Spatial\Code\Config.ocf
File Copy: C:\BUGSModelLibrary\development\WinBUGS\WinBUGS14\Spatial\Code\ExpKrig.ocf
File Copy: C:\BUGSModelLibrary\development\WinBUGS\WinBUGS14\Spatial\Code\MaternKrig.ocf
File Copy: C:\BUGSModelLibrary\development\WinBUGS\WinBUGS14\Spatial\Code\Poissconv.ocf
File Copy: C:\BUGSModelLibrary\development\WinBUGS\WinBUGS14\Spatial\Code\StrucMVN.ocf
Made Dir: C:\BUGSModelLibrary\development\WinBUGS\WinBUGS14\Spatial\Rsrc
File Copy: C:\BUGSModelLibrary\development\WinBUGS\WinBUGS14\Spatial\Rsrc\Grammar.odc
File Copy: C:\BUGSModelLibrary\development\WinBUGS\WinBUGS14\Spatial\Rsrc\Strings.odc
Made Dir: C:\BUGSModelLibrary\development\WinBUGS\WinBUGS14\Std
Made Dir: C:\BUGSModelLibrary\development\WinBUGS\WinBUGS14\Std\Code
File Copy: C:\BUGSModelLibrary\development\WinBUGS\WinBUGS14\Std\Code\Api.ocf
File Copy: C:\BUGSModelLibrary\development\WinBUGS\WinBUGS14\Std\Code\CFrames.ocf
File Copy: C:\BUGSModelLibrary\development\WinBUGS\WinBUGS14\Std\Code\Clocks.ocf
File Copy: C:\BUGSModelLibrary\development\WinBUGS\WinBUGS14\Std\Code\Cmds.ocf
File Copy: C:\BUGSModelLibrary\development\WinBUGS\WinBUGS14\Std\Code\Cmds1.ocf
File Copy: C:\BUGSModelLibrary\development\WinBUGS\WinBUGS14\Std\Code\Coder.ocf
File Copy: C:\BUGSModelLibrary\development\WinBUGS\WinBUGS14\Std\Code\Debug.ocf
File Copy: C:\BUGSModelLibrary\development\WinBUGS\WinBUGS14\Std\Code\Dialog.ocf
File Copy: C:\BUGSModelLibrary\development\WinBUGS\WinBUGS14\Std\Code\ETHConv.ocf
File Copy: C:\BUGSModelLibrary\development\WinBUGS\WinBUGS14\Std\Code\Folds.ocf
File Copy: C:\BUGSModelLibrary\development\WinBUGS\WinBUGS14\Std\Code\Headers.ocf
File Copy: C:\BUGSModelLibrary\development\WinBUGS\WinBUGS14\Std\Code\Interpreter.ocf
File Copy: C:\BUGSModelLibrary\development\WinBUGS\WinBUGS14\Std\Code\Links.ocf
File Copy: C:\BUGSModelLibrary\development\WinBUGS\WinBUGS14\Std\Code\Loader.ocf
File Copy: C:\BUGSModelLibrary\development\WinBUGS\WinBUGS14\Std\Code\Log.ocf
File Copy: C:\BUGSModelLibrary\development\WinBUGS\WinBUGS14\Std\Code\Logos.ocf
File Copy: C:\BUGSModelLibrary\development\WinBUGS\WinBUGS14\Std\Code\MenuTool.ocf
File Copy: C:\BUGSModelLibrary\development\WinBUGS\WinBUGS14\Std\Code\Scrollers.ocf
File Copy: C:\BUGSModelLibrary\development\WinBUGS\WinBUGS14\Std\Code\Stamps.ocf
File Copy: C:\BUGSModelLibrary\development\WinBUGS\WinBUGS14\Std\Code\Tables.ocf
File Copy: C:\BUGSModelLibrary\development\WinBUGS\WinBUGS14\Std\Code\TabViews.ocf
File Copy: C:\BUGSModelLibrary\development\WinBUGS\WinBUGS14\Std\Code\ViewSizer.ocf
Made Dir: C:\BUGSModelLibrary\development\WinBUGS\WinBUGS14\Std\Rsrc
File Copy: C:\BUGSModelLibrary\development\WinBUGS\WinBUGS14\Std\Rsrc\Cmds.odc
File Copy: C:\BUGSModelLibrary\development\WinBUGS\WinBUGS14\Std\Rsrc\Cmds1.odc
File Copy: C:\BUGSModelLibrary\development\WinBUGS\WinBUGS14\Std\Rsrc\Coder.odc
File Copy: C:\BUGSModelLibrary\development\WinBUGS\WinBUGS14\Std\Rsrc\Folds.odc
File Copy: C:\BUGSModelLibrary\development\WinBUGS\WinBUGS14\Std\Rsrc\Headers.odc
File Copy: C:\BUGSModelLibrary\development\WinBUGS\WinBUGS14\Std\Rsrc\Links.odc
File Copy: C:\BUGSModelLibrary\development\WinBUGS\WinBUGS14\Std\Rsrc\Scroller.odc
File Copy: C:\BUGSModelLibrary\development\WinBUGS\WinBUGS14\Std\Rsrc\Stamps.odc
File Copy: C:\BUGSModelLibrary\development\WinBUGS\WinBUGS14\Std\Rsrc\Strings.odc
File Copy: C:\BUGSModelLibrary\development\WinBUGS\WinBUGS14\Std\Rsrc\Tables.odc
File Copy: C:\BUGSModelLibrary\development\WinBUGS\WinBUGS14\Std\Rsrc\TabViews.odc
File Copy: C:\BUGSModelLibrary\development\WinBUGS\WinBUGS14\Std\Rsrc\ViewSizer.odc
Made Dir: C:\BUGSModelLibrary\development\WinBUGS\WinBUGS14\Summary
Made Dir: C:\BUGSModelLibrary\development\WinBUGS\WinBUGS14\Summary\Code
File Copy: C:\BUGSModelLibrary\development\WinBUGS\WinBUGS14\Summary\Code\Cmds.ocf
File Copy: C:\BUGSModelLibrary\development\WinBUGS\WinBUGS14\Summary\Code\Index.ocf
File Copy: C:\BUGSModelLibrary\development\WinBUGS\WinBUGS14\Summary\Code\Interface.ocf
File Copy: C:\BUGSModelLibrary\development\WinBUGS\WinBUGS14\Summary\Code\Monitors.ocf
Made Dir: C:\BUGSModelLibrary\development\WinBUGS\WinBUGS14\Summary\Rsrc
File Copy: C:\BUGSModelLibrary\development\WinBUGS\WinBUGS14\Summary\Rsrc\Dialog0.odc
File Copy: C:\BUGSModelLibrary\development\WinBUGS\WinBUGS14\Summary\Rsrc\Strings.odc
Made Dir: C:\BUGSModelLibrary\development\WinBUGS\WinBUGS14\System
Made Dir: C:\BUGSModelLibrary\development\WinBUGS\WinBUGS14\System\Code
File Copy: C:\BUGSModelLibrary\development\WinBUGS\WinBUGS14\System\Code\Config.ocf
File Copy: C:\BUGSModelLibrary\development\WinBUGS\WinBUGS14\System\Code\ConfigOld.ocf
File Copy: C:\BUGSModelLibrary\development\WinBUGS\WinBUGS14\System\Code\Containers.ocf
File Copy: C:\BUGSModelLibrary\development\WinBUGS\WinBUGS14\System\Code\Controllers.ocf
File Copy: C:\BUGSModelLibrary\development\WinBUGS\WinBUGS14\System\Code\Controls.ocf
File Copy: C:\BUGSModelLibrary\development\WinBUGS\WinBUGS14\System\Code\Converters.ocf
File Copy: C:\BUGSModelLibrary\development\WinBUGS\WinBUGS14\System\Code\Dates.ocf
File Copy: C:\BUGSModelLibrary\development\WinBUGS\WinBUGS14\System\Code\Dialog.ocf
File Copy: C:\BUGSModelLibrary\development\WinBUGS\WinBUGS14\System\Code\Documents.ocf
File Copy: C:\BUGSModelLibrary\development\WinBUGS\WinBUGS14\System\Code\Errors.ocf
File Copy: C:\BUGSModelLibrary\development\WinBUGS\WinBUGS14\System\Code\Files.ocf
File Copy: C:\BUGSModelLibrary\development\WinBUGS\WinBUGS14\System\Code\Fonts.ocf
File Copy: C:\BUGSModelLibrary\development\WinBUGS\WinBUGS14\System\Code\In.ocf
File Copy: C:\BUGSModelLibrary\development\WinBUGS\WinBUGS14\System\Code\Init.ocf
File Copy: C:\BUGSModelLibrary\development\WinBUGS\WinBUGS14\System\Code\Integers.ocf
File Copy: C:\BUGSModelLibrary\development\WinBUGS\WinBUGS14\System\Code\Kernel.ocf
File Copy: C:\BUGSModelLibrary\development\WinBUGS\WinBUGS14\System\Code\Log.ocf
File Copy: C:\BUGSModelLibrary\development\WinBUGS\WinBUGS14\System\Code\Math.ocf
File Copy: C:\BUGSModelLibrary\development\WinBUGS\WinBUGS14\System\Code\Mechanisms.ocf
File Copy: C:\BUGSModelLibrary\development\WinBUGS\WinBUGS14\System\Code\Meta.ocf
File Copy: C:\BUGSModelLibrary\development\WinBUGS\WinBUGS14\System\Code\Models.ocf
File Copy: C:\BUGSModelLibrary\development\WinBUGS\WinBUGS14\System\Code\Out.ocf
File Copy: C:\BUGSModelLibrary\development\WinBUGS\WinBUGS14\System\Code\Ports.ocf
File Copy: C:\BUGSModelLibrary\development\WinBUGS\WinBUGS14\System\Code\Printers.ocf
File Copy: C:\BUGSModelLibrary\development\WinBUGS\WinBUGS14\System\Code\Printing.ocf
File Copy: C:\BUGSModelLibrary\development\WinBUGS\WinBUGS14\System\Code\Properties.ocf
File Copy: C:\BUGSModelLibrary\development\WinBUGS\WinBUGS14\System\Code\Registry.ocf
File Copy: C:\BUGSModelLibrary\development\WinBUGS\WinBUGS14\System\Code\Sequencers.ocf
File Copy: C:\BUGSModelLibrary\development\WinBUGS\WinBUGS14\System\Code\Services.ocf
File Copy: C:\BUGSModelLibrary\development\WinBUGS\WinBUGS14\System\Code\SMath.ocf
File Copy: C:\BUGSModelLibrary\development\WinBUGS\WinBUGS14\System\Code\Stores.ocf
File Copy: C:\BUGSModelLibrary\development\WinBUGS\WinBUGS14\System\Code\Strings.ocf
File Copy: C:\BUGSModelLibrary\development\WinBUGS\WinBUGS14\System\Code\Views.ocf
File Copy: C:\BUGSModelLibrary\development\WinBUGS\WinBUGS14\System\Code\Windows.ocf
File Copy: C:\BUGSModelLibrary\development\WinBUGS\WinBUGS14\System\Code\XYplane.ocf
Made Dir: C:\BUGSModelLibrary\development\WinBUGS\WinBUGS14\System\Rsrc
File Copy: C:\BUGSModelLibrary\development\WinBUGS\WinBUGS14\System\Rsrc\About.odc
File Copy: C:\BUGSModelLibrary\development\WinBUGS\WinBUGS14\System\Rsrc\Menus.odc
File Copy: C:\BUGSModelLibrary\development\WinBUGS\WinBUGS14\System\Rsrc\Registry.odc
File Copy: C:\BUGSModelLibrary\development\WinBUGS\WinBUGS14\System\Rsrc\Strings.odc
Made Dir: C:\BUGSModelLibrary\development\WinBUGS\WinBUGS14\Test
File Copy: C:\BUGSModelLibrary\development\WinBUGS\WinBUGS14\Test\Seeds_dat.txt
File Copy: C:\BUGSModelLibrary\development\WinBUGS\WinBUGS14\Test\Seeds_in.txt
File Copy: C:\BUGSModelLibrary\development\WinBUGS\WinBUGS14\Test\Seeds_in1.txt
File Copy: C:\BUGSModelLibrary\development\WinBUGS\WinBUGS14\Test\Seeds_mod.txt
Made Dir: C:\BUGSModelLibrary\development\WinBUGS\WinBUGS14\Text
Made Dir: C:\BUGSModelLibrary\development\WinBUGS\WinBUGS14\Text\Code
File Copy: C:\BUGSModelLibrary\development\WinBUGS\WinBUGS14\Text\Code\Cmds.ocf
File Copy: C:\BUGSModelLibrary\development\WinBUGS\WinBUGS14\Text\Code\Controllers.ocf
File Copy: C:\BUGSModelLibrary\development\WinBUGS\WinBUGS14\Text\Code\Mappers.ocf
File Copy: C:\BUGSModelLibrary\development\WinBUGS\WinBUGS14\Text\Code\Models.ocf
File Copy: C:\BUGSModelLibrary\development\WinBUGS\WinBUGS14\Text\Code\Rulers.ocf
File Copy: C:\BUGSModelLibrary\development\WinBUGS\WinBUGS14\Text\Code\Setters.ocf
File Copy: C:\BUGSModelLibrary\development\WinBUGS\WinBUGS14\Text\Code\Views.ocf
Made Dir: C:\BUGSModelLibrary\development\WinBUGS\WinBUGS14\Text\Rsrc
File Copy: C:\BUGSModelLibrary\development\WinBUGS\WinBUGS14\Text\Rsrc\Cmds.odc
File Copy: C:\BUGSModelLibrary\development\WinBUGS\WinBUGS14\Text\Rsrc\Cmds1.odc
File Copy: C:\BUGSModelLibrary\development\WinBUGS\WinBUGS14\Text\Rsrc\Menus.odc
File Copy: C:\BUGSModelLibrary\development\WinBUGS\WinBUGS14\Text\Rsrc\Strings.odc
Made Dir: C:\BUGSModelLibrary\development\WinBUGS\WinBUGS14\Updater
Made Dir: C:\BUGSModelLibrary\development\WinBUGS\WinBUGS14\Updater\Code
File Copy: C:\BUGSModelLibrary\development\WinBUGS\WinBUGS14\Updater\Code\Actions.ocf
File Copy: C:\BUGSModelLibrary\development\WinBUGS\WinBUGS14\Updater\Code\Beta.ocf
File Copy: C:\BUGSModelLibrary\development\WinBUGS\WinBUGS14\Updater\Code\Catagorical.ocf
File Copy: C:\BUGSModelLibrary\development\WinBUGS\WinBUGS14\Updater\Code\DFreeARS.ocf
File Copy: C:\BUGSModelLibrary\development\WinBUGS\WinBUGS14\Updater\Code\Dirichlet.ocf
File Copy: C:\BUGSModelLibrary\development\WinBUGS\WinBUGS14\Updater\Code\Forward.ocf
File Copy: C:\BUGSModelLibrary\development\WinBUGS\WinBUGS14\Updater\Code\Gamma.ocf
File Copy: C:\BUGSModelLibrary\development\WinBUGS\WinBUGS14\Updater\Code\GLM.ocf
File Copy: C:\BUGSModelLibrary\development\WinBUGS\WinBUGS14\Updater\Code\Griddy.ocf
File Copy: C:\BUGSModelLibrary\development\WinBUGS\WinBUGS14\Updater\Code\Metbinomial.ocf
File Copy: C:\BUGSModelLibrary\development\WinBUGS\WinBUGS14\Updater\Code\Methods.ocf
File Copy: C:\BUGSModelLibrary\development\WinBUGS\WinBUGS14\Updater\Code\Metnormal.ocf
File Copy: C:\BUGSModelLibrary\development\WinBUGS\WinBUGS14\Updater\Code\Metplots.ocf
File Copy: C:\BUGSModelLibrary\development\WinBUGS\WinBUGS14\Updater\Code\Multinomial.ocf
File Copy: C:\BUGSModelLibrary\development\WinBUGS\WinBUGS14\Updater\Code\MVNLinear.ocf
File Copy: C:\BUGSModelLibrary\development\WinBUGS\WinBUGS14\Updater\Code\MVNormal.ocf
File Copy: C:\BUGSModelLibrary\development\WinBUGS\WinBUGS14\Updater\Code\Normal.ocf
File Copy: C:\BUGSModelLibrary\development\WinBUGS\WinBUGS14\Updater\Code\Pareto.ocf
File Copy: C:\BUGSModelLibrary\development\WinBUGS\WinBUGS14\Updater\Code\Poisson.ocf
File Copy: C:\BUGSModelLibrary\development\WinBUGS\WinBUGS14\Updater\Code\Rejection.ocf
File Copy: C:\BUGSModelLibrary\development\WinBUGS\WinBUGS14\Updater\Code\Settings.ocf
File Copy: C:\BUGSModelLibrary\development\WinBUGS\WinBUGS14\Updater\Code\Slice.ocf
File Copy: C:\BUGSModelLibrary\development\WinBUGS\WinBUGS14\Updater\Code\Updaters.ocf
File Copy: C:\BUGSModelLibrary\development\WinBUGS\WinBUGS14\Updater\Code\Wishart.ocf
Made Dir: C:\BUGSModelLibrary\development\WinBUGS\WinBUGS14\Updater\Docu
File Copy: C:\BUGSModelLibrary\development\WinBUGS\WinBUGS14\Updater\Docu\Updaters.odc
Made Dir: C:\BUGSModelLibrary\development\WinBUGS\WinBUGS14\Updater\Rsrc
File Copy: C:\BUGSModelLibrary\development\WinBUGS\WinBUGS14\Updater\Rsrc\Methods.odc
File Copy: C:\BUGSModelLibrary\development\WinBUGS\WinBUGS14\Updater\Rsrc\odc41933
File Copy: C:\BUGSModelLibrary\development\WinBUGS\WinBUGS14\Updater\Rsrc\SettingsDialog.odc
File Copy: C:\BUGSModelLibrary\development\WinBUGS\WinBUGS14\Updater\Rsrc\Strings.odc
Made Dir: C:\BUGSModelLibrary\development\WinBUGS\WinBUGS14\Win
Made Dir: C:\BUGSModelLibrary\development\WinBUGS\WinBUGS14\Win\Rsrc
File Copy: C:\BUGSModelLibrary\development\WinBUGS\WinBUGS14\Win\Rsrc\Applogo.ico
File Copy: C:\BUGSModelLibrary\development\WinBUGS\WinBUGS14\Win\Rsrc\Bugslogo.ico
File Copy: C:\BUGSModelLibrary\development\WinBUGS\WinBUGS14\Win\Rsrc\CFLogo.ico
File Copy: C:\BUGSModelLibrary\development\WinBUGS\WinBUGS14\Win\Rsrc\Copy.cur
File Copy: C:\BUGSModelLibrary\development\WinBUGS\WinBUGS14\Win\Rsrc\Doclogo.ico
File Copy: C:\BUGSModelLibrary\development\WinBUGS\WinBUGS14\Win\Rsrc\DtyLogo.ico
File Copy: C:\BUGSModelLibrary\development\WinBUGS\WinBUGS14\Win\Rsrc\folderimg.ico
File Copy: C:\BUGSModelLibrary\development\WinBUGS\WinBUGS14\Win\Rsrc\Hand.cur
File Copy: C:\BUGSModelLibrary\development\WinBUGS\WinBUGS14\Win\Rsrc\leafimg.ico
File Copy: C:\BUGSModelLibrary\development\WinBUGS\WinBUGS14\Win\Rsrc\Link.cur
File Copy: C:\BUGSModelLibrary\development\WinBUGS\WinBUGS14\Win\Rsrc\Move.cur
File Copy: C:\BUGSModelLibrary\development\WinBUGS\WinBUGS14\Win\Rsrc\openimg.ico
File Copy: C:\BUGSModelLibrary\development\WinBUGS\WinBUGS14\Win\Rsrc\Pick.cur
File Copy: C:\BUGSModelLibrary\development\WinBUGS\WinBUGS14\Win\Rsrc\SFLogo.ico
File Copy: C:\BUGSModelLibrary\development\WinBUGS\WinBUGS14\Win\Rsrc\Stop.cur
File Copy: C:\BUGSModelLibrary\development\WinBUGS\WinBUGS14\Win\Rsrc\Table.cur
File Copy: C:\BUGSModelLibrary\development\WinBUGS\WinBUGS14\WinBUGS14.exe
Made Dir: C:\BUGSModelLibrary\development\WinBUGS\WinBUGS14\Xhtml
Made Dir: C:\BUGSModelLibrary\development\WinBUGS\WinBUGS14\Xhtml\Code
File Copy: C:\BUGSModelLibrary\development\WinBUGS\WinBUGS14\Xhtml\Code\EntitySets.ocf
File Copy: C:\BUGSModelLibrary\development\WinBUGS\WinBUGS14\Xhtml\Code\Exporter.ocf
Made Dir: C:\BUGSModelLibrary\development\WinBUGS\WinBUGS14\Xhtml\Rsrc
File Copy: C:\BUGSModelLibrary\development\WinBUGS\WinBUGS14\Xhtml\Rsrc\Strings.odc
